\relax 
\providecommand\hyper@newdestlabel[2]{}
\FN@pp@footnotehinttrue 
\@writefile{toc}{\contentsline {chapter}{\numberline {第三章\hspace  {.3em}}基于AdaBoost算法的特征显著图权值优化}{16}{chapter.3}\protected@file@percent }
\@writefile{toc}{\contentsline {section}{\numberline {3.1}引言}{16}{section.3.1}\protected@file@percent }
\@writefile{toc}{\contentsline {section}{\numberline {3.2}Boosting算法}{16}{section.3.2}\protected@file@percent }
\newlabel{equ:20}{{3.1}{16}{Boosting算法}{equation.3.2.1}{}}
\@writefile{toc}{\contentsline {section}{\numberline {3.3}AdaBoost算法的提出}{17}{section.3.3}\protected@file@percent }
\newlabel{equ:21}{{3.2}{17}{AdaBoost算法的提出}{equation.3.3.2}{}}
\newlabel{equ:22}{{3.3}{17}{AdaBoost算法的提出}{equation.3.3.3}{}}
\newlabel{equ:23}{{3.4}{18}{AdaBoost算法的提出}{equation.3.3.4}{}}
\newlabel{equ:24}{{3.5}{18}{AdaBoost算法的提出}{equation.3.3.5}{}}
\@writefile{loa}{\contentsline {algorithm}{\numberline {1}{\ignorespaces 二分类AdaBoost算法\relax }}{18}{algorithm.caption.11}\protected@file@percent }
\newlabel{alg:ch3.1}{{1}{18}{二分类AdaBoost算法\relax }{algorithm.caption.11}{}}
\@writefile{toc}{\contentsline {section}{\numberline {3.4}适用于多分类的Adaboost算法}{18}{section.3.4}\protected@file@percent }
\@writefile{loa}{\contentsline {algorithm}{\numberline {2}{\ignorespaces AdaBoost.M1算法\relax }}{19}{algorithm.caption.12}\protected@file@percent }
\newlabel{alg:ch3.2}{{2}{19}{AdaBoost.M1算法\relax }{algorithm.caption.12}{}}
\@writefile{toc}{\contentsline {section}{\numberline {3.5}算法仿真与实验分析}{19}{section.3.5}\protected@file@percent }
\newlabel{equ:24_1}{{3.6}{19}{算法仿真与实验分析}{equation.3.5.6}{}}
\@writefile{toc}{\contentsline {subsubsection}{\numberline {（1）}序列boat1}{20}{subsubsection.3.5.0.1}\protected@file@percent }
\@writefile{lof}{\contentsline {figure}{\numberline {3.1}{\ignorespaces 序列boat1的目标检测结果\relax }}{20}{figure.caption.13}\protected@file@percent }
\newlabel{tab:single_1}{{3.1}{20}{}{table.caption.14}{}}
\@writefile{toc}{\contentsline {subsubsection}{\numberline {（2）}序列car1}{20}{subsubsection.3.5.0.2}\protected@file@percent }
\@writefile{lof}{\contentsline {figure}{\numberline {3.2}{\ignorespaces 序列car1的目标检测结果\relax }}{20}{figure.caption.15}\protected@file@percent }
\newlabel{tab:single_2}{{3.2}{20}{}{table.caption.16}{}}
\@writefile{toc}{\contentsline {subsubsection}{\numberline {（3）}序列bike1}{21}{subsubsection.3.5.0.3}\protected@file@percent }
\@writefile{lof}{\contentsline {figure}{\numberline {3.3}{\ignorespaces 序列bike1的目标检测结果\relax }}{21}{figure.caption.17}\protected@file@percent }
\newlabel{tab:single_3}{{3.3}{21}{}{table.caption.18}{}}
\@writefile{toc}{\contentsline {section}{\numberline {3.6}本章小结}{21}{section.3.6}\protected@file@percent }
\FN@pp@footnotehinttrue 
\@setckpt{content/adaboost}{
\setcounter{page}{22}
\setcounter{equation}{6}
\setcounter{enumi}{0}
\setcounter{enumii}{0}
\setcounter{enumiii}{0}
\setcounter{enumiv}{0}
\setcounter{footnote}{0}
\setcounter{mpfootnote}{0}
\setcounter{parentequation}{0}
\setcounter{part}{0}
\setcounter{chapter}{3}
\setcounter{section}{6}
\setcounter{subsection}{0}
\setcounter{subsubsection}{0}
\setcounter{paragraph}{0}
\setcounter{subparagraph}{0}
\setcounter{figure}{3}
\setcounter{table}{3}
\setcounter{pp@next@reset}{1}
\setcounter{@fnserial}{0}
\setcounter{NAT@ctr}{0}
\setcounter{caption@flags}{2}
\setcounter{continuedfloat}{0}
\setcounter{Item}{0}
\setcounter{Hfootnote}{0}
\setcounter{Hy@AnnotLevel}{0}
\setcounter{bookmark@seq@number}{30}
\setcounter{float@type}{16}
\setcounter{FBl@b}{0}
\setcounter{FRobj}{0}
\setcounter{FRsobj}{0}
\setcounter{FBcnt}{0}
\setcounter{dummytheorem}{0}
\setcounter{KVtest}{0}
\setcounter{subfigure}{0}
\setcounter{subfigure@save}{0}
\setcounter{lofdepth}{1}
\setcounter{subtable}{0}
\setcounter{subtable@save}{0}
\setcounter{lotdepth}{1}
\setcounter{r@tfl@t}{0}
\setcounter{LT@tables}{0}
\setcounter{LT@chunks}{0}
\setcounter{lstnumber}{1}
\setcounter{algorithm}{2}
\setcounter{ALC@unique}{17}
\setcounter{ALC@line}{9}
\setcounter{ALC@rem}{9}
\setcounter{ALC@depth}{0}
\setcounter{exercise}{0}
\setcounter{nonsense}{0}
\setcounter{lines}{0}
\setcounter{section@level}{0}
\setcounter{subalgorithm}{0}
\setcounter{subalgorithm@save}{0}
\setcounter{loadepth}{1}
\setcounter{FBLTpage}{0}
\setcounter{lstlisting}{0}
}
