\relax 
\providecommand\hyper@newdestlabel[2]{}
\FN@pp@footnotehinttrue 
\@writefile{toc}{\contentsline {chapter}{\numberline {附录 B\hspace  {.3em}}后记}{19}{appendix.B}\protected@file@percent }
\@writefile{toc}{\contentsline {section}{\numberline {B.1}v0.9a后记——Old Jack 的吐槽}{19}{section.B.1}\protected@file@percent }
\@writefile{toc}{\contentsline {section}{\numberline {B.2}v1.0后记}{20}{section.B.2}\protected@file@percent }
\@writefile{toc}{\contentsline {section}{\numberline {B.3}v2.0 后记 by yzwduck}{21}{section.B.3}\protected@file@percent }
\FN@pp@footnote@aux{8}{21}
\FN@pp@footnote@aux{9}{21}
\@writefile{toc}{\contentsline {section}{\numberline {B.4}v2.1 后记 by yzwduck}{22}{section.B.4}\protected@file@percent }
\@writefile{toc}{\contentsline {section}{\numberline {B.5}v2.2 后记 by yzwduck}{22}{section.B.5}\protected@file@percent }
\FN@pp@footnote@aux{10}{22}
\FN@pp@footnotehinttrue 
\@setckpt{content/ex_postscript}{
\setcounter{page}{24}
\setcounter{equation}{0}
\setcounter{enumi}{3}
\setcounter{enumii}{0}
\setcounter{enumiii}{0}
\setcounter{enumiv}{5}
\setcounter{footnote}{0}
\setcounter{mpfootnote}{0}
\setcounter{parentequation}{0}
\setcounter{part}{0}
\setcounter{chapter}{2}
\setcounter{section}{5}
\setcounter{subsection}{0}
\setcounter{subsubsection}{0}
\setcounter{paragraph}{0}
\setcounter{subparagraph}{0}
\setcounter{figure}{0}
\setcounter{table}{0}
\setcounter{pp@next@reset}{11}
\setcounter{@fnserial}{10}
\setcounter{NAT@ctr}{23}
\setcounter{caption@flags}{0}
\setcounter{continuedfloat}{0}
\setcounter{Item}{39}
\setcounter{Hfootnote}{10}
\setcounter{Hy@AnnotLevel}{0}
\setcounter{bookmark@seq@number}{34}
\setcounter{float@type}{8}
\setcounter{FBl@b}{0}
\setcounter{FRobj}{-16}
\setcounter{FRsobj}{0}
\setcounter{FBcnt}{0}
\setcounter{dummytheorem}{0}
\setcounter{KVtest}{0}
\setcounter{subfigure}{0}
\setcounter{subfigure@save}{2}
\setcounter{lofdepth}{1}
\setcounter{subtable}{0}
\setcounter{subtable@save}{0}
\setcounter{lotdepth}{1}
\setcounter{r@tfl@t}{2}
\setcounter{LT@tables}{1}
\setcounter{LT@chunks}{6}
\setcounter{lstnumber}{1}
\setcounter{exercise}{0}
\setcounter{nonsense}{0}
\setcounter{lines}{2}
\setcounter{section@level}{0}
\setcounter{FBLTpage}{3}
\setcounter{lstlisting}{0}
\setcounter{density}{1020}
}
