\relax 
\providecommand\hyper@newdestlabel[2]{}
\FN@pp@footnotehinttrue 
\newlabel{ref:ch1.1}{{1}{29}{\bibname }{Item.1}{}}
\newlabel{ref:ch1.3}{{2}{29}{\bibname }{Item.2}{}}
\newlabel{ref:ch1.4}{{3}{29}{\bibname }{Item.3}{}}
\newlabel{ref:ch1.5}{{4}{29}{\bibname }{Item.4}{}}
\newlabel{ref:ch1.6}{{5}{29}{\bibname }{Item.5}{}}
\newlabel{ref:ch1.7}{{6}{29}{\bibname }{Item.6}{}}
\newlabel{ref:ch1.8}{{7}{29}{\bibname }{Item.7}{}}
\newlabel{ref:ch1.9}{{8}{29}{\bibname }{Item.8}{}}
\newlabel{ref:ch1.10}{{9}{29}{\bibname }{Item.9}{}}
\newlabel{ref:ch1.11}{{10}{29}{\bibname }{Item.10}{}}
\newlabel{ref:ch1.12}{{11}{29}{\bibname }{Item.11}{}}
\newlabel{ref:ch2.1}{{12}{29}{\bibname }{Item.12}{}}
\newlabel{ref:ch2.2}{{13}{29}{\bibname }{Item.13}{}}
\newlabel{ref:ch2.3}{{14}{29}{\bibname }{Item.14}{}}
\newlabel{ref:ch2.4}{{15}{29}{\bibname }{Item.15}{}}
\newlabel{ref:ch2.5}{{16}{29}{\bibname }{Item.16}{}}
\newlabel{ref:ch2.6}{{17}{29}{\bibname }{Item.17}{}}
\newlabel{ref:ch2.7}{{18}{29}{\bibname }{Item.18}{}}
\newlabel{ref:ch2.8}{{19}{29}{\bibname }{Item.19}{}}
\newlabel{ref:ch2.9}{{20}{29}{\bibname }{Item.20}{}}
\newlabel{ref:ch2.10}{{21}{29}{\bibname }{Item.21}{}}
\newlabel{ref:ch2.11}{{22}{29}{\bibname }{Item.22}{}}
\newlabel{ref:ch2.12}{{23}{29}{\bibname }{Item.23}{}}
\newlabel{ref:ch2.13}{{24}{29}{\bibname }{Item.24}{}}
\newlabel{ref:ch3.1}{{25}{29}{\bibname }{Item.25}{}}
\newlabel{ref:ch4.1}{{26}{30}{\bibname }{Item.26}{}}
\newlabel{ref:ch4.2}{{27}{30}{\bibname }{Item.27}{}}
\newlabel{ref:ch4.3}{{28}{30}{\bibname }{Item.28}{}}
\newlabel{ref:ch4.4}{{29}{30}{\bibname }{Item.29}{}}
\FN@pp@footnotehinttrue 
\@setckpt{content/manref}{
\setcounter{page}{31}
\setcounter{equation}{0}
\setcounter{enumi}{0}
\setcounter{enumii}{0}
\setcounter{enumiii}{0}
\setcounter{enumiv}{29}
\setcounter{footnote}{0}
\setcounter{mpfootnote}{0}
\setcounter{parentequation}{0}
\setcounter{part}{0}
\setcounter{chapter}{0}
\setcounter{section}{0}
\setcounter{subsection}{0}
\setcounter{subsubsection}{0}
\setcounter{paragraph}{0}
\setcounter{subparagraph}{0}
\setcounter{figure}{0}
\setcounter{table}{0}
\setcounter{pp@next@reset}{1}
\setcounter{@fnserial}{0}
\setcounter{NAT@ctr}{0}
\setcounter{caption@flags}{0}
\setcounter{continuedfloat}{0}
\setcounter{Item}{29}
\setcounter{Hfootnote}{0}
\setcounter{Hy@AnnotLevel}{0}
\setcounter{bookmark@seq@number}{42}
\setcounter{float@type}{16}
\setcounter{FBl@b}{0}
\setcounter{FRobj}{0}
\setcounter{FRsobj}{0}
\setcounter{FBcnt}{0}
\setcounter{dummytheorem}{0}
\setcounter{KVtest}{0}
\setcounter{subfigure}{0}
\setcounter{subfigure@save}{0}
\setcounter{lofdepth}{1}
\setcounter{subtable}{0}
\setcounter{subtable@save}{0}
\setcounter{lotdepth}{1}
\setcounter{r@tfl@t}{0}
\setcounter{LT@tables}{0}
\setcounter{LT@chunks}{0}
\setcounter{lstnumber}{1}
\setcounter{algorithm}{2}
\setcounter{ALC@unique}{17}
\setcounter{ALC@line}{9}
\setcounter{ALC@rem}{9}
\setcounter{ALC@depth}{0}
\setcounter{exercise}{0}
\setcounter{nonsense}{0}
\setcounter{lines}{0}
\setcounter{section@level}{0}
\setcounter{subalgorithm}{0}
\setcounter{subalgorithm@save}{0}
\setcounter{loadepth}{1}
\setcounter{FBLTpage}{0}
\setcounter{lstlisting}{0}
}
