\relax 
\providecommand\hyper@newdestlabel[2]{}
\FN@pp@footnotehinttrue 
\@writefile{toc}{\contentsline {chapter}{\numberline {第四章\hspace  {.3em}}基于视觉注意机制的多目标显著区域提取检测方法}{22}{chapter.4}\protected@file@percent }
\@writefile{toc}{\contentsline {section}{\numberline {4.1}引言}{22}{section.4.1}\protected@file@percent }
\@writefile{lof}{\contentsline {figure}{\numberline {4.1}{\ignorespaces 多目标显著区域提取模型\relax }}{22}{figure.caption.19}\protected@file@percent }
\newlabel{fig:ch4_1}{{4.1}{22}{多目标显著区域提取模型\relax }{figure.caption.19}{}}
\@writefile{toc}{\contentsline {section}{\numberline {4.2}人眼关注点检测}{23}{section.4.2}\protected@file@percent }
\newlabel{equ:25}{{4.1}{23}{人眼关注点检测}{equation.4.2.1}{}}
\newlabel{equ:26}{{4.2}{23}{人眼关注点检测}{equation.4.2.2}{}}
\newlabel{equ:27}{{4.3}{23}{人眼关注点检测}{equation.4.2.3}{}}
\newlabel{equ:28}{{4.4}{24}{人眼关注点检测}{equation.4.2.4}{}}
\@writefile{toc}{\contentsline {section}{\numberline {4.3}注意焦点的选择与转移}{24}{section.4.3}\protected@file@percent }
\@writefile{toc}{\contentsline {section}{\numberline {4.4}区域分割及筛选}{25}{section.4.4}\protected@file@percent }
\@writefile{toc}{\contentsline {subsection}{\numberline {4.4.1}区域分割}{25}{subsection.4.4.1}\protected@file@percent }
\newlabel{equ:29}{{4.5}{25}{区域分割}{equation.4.4.5}{}}
\@writefile{toc}{\contentsline {subsection}{\numberline {4.4.2}区域筛选}{25}{subsection.4.4.2}\protected@file@percent }
\@writefile{toc}{\contentsline {section}{\numberline {4.5}模型仿真与实验分析}{25}{section.4.5}\protected@file@percent }
\@writefile{lof}{\contentsline {figure}{\numberline {4.2}{\ignorespaces 场景1\relax }}{26}{figure.caption.20}\protected@file@percent }
\newlabel{fig:ch4_2}{{4.2}{26}{场景1\relax }{figure.caption.20}{}}
\@writefile{lof}{\contentsline {figure}{\numberline {4.3}{\ignorespaces 场景2\relax }}{26}{figure.caption.21}\protected@file@percent }
\newlabel{fig:ch4_3}{{4.3}{26}{场景2\relax }{figure.caption.21}{}}
\@writefile{lof}{\contentsline {figure}{\numberline {4.4}{\ignorespaces 场景3\relax }}{26}{figure.caption.22}\protected@file@percent }
\newlabel{fig:ch4_4}{{4.4}{26}{场景3\relax }{figure.caption.22}{}}
\@writefile{toc}{\contentsline {section}{\numberline {4.6}本章小结}{27}{section.4.6}\protected@file@percent }
\FN@pp@footnotehinttrue 
\@setckpt{content/multi_exp}{
\setcounter{page}{28}
\setcounter{equation}{5}
\setcounter{enumi}{0}
\setcounter{enumii}{0}
\setcounter{enumiii}{0}
\setcounter{enumiv}{0}
\setcounter{footnote}{0}
\setcounter{mpfootnote}{0}
\setcounter{parentequation}{0}
\setcounter{part}{0}
\setcounter{chapter}{4}
\setcounter{section}{6}
\setcounter{subsection}{0}
\setcounter{subsubsection}{0}
\setcounter{paragraph}{0}
\setcounter{subparagraph}{0}
\setcounter{figure}{4}
\setcounter{table}{0}
\setcounter{pp@next@reset}{1}
\setcounter{@fnserial}{0}
\setcounter{NAT@ctr}{0}
\setcounter{caption@flags}{0}
\setcounter{continuedfloat}{0}
\setcounter{Item}{0}
\setcounter{Hfootnote}{0}
\setcounter{Hy@AnnotLevel}{0}
\setcounter{bookmark@seq@number}{39}
\setcounter{float@type}{16}
\setcounter{FBl@b}{0}
\setcounter{FRobj}{0}
\setcounter{FRsobj}{0}
\setcounter{FBcnt}{0}
\setcounter{dummytheorem}{0}
\setcounter{KVtest}{0}
\setcounter{subfigure}{0}
\setcounter{subfigure@save}{0}
\setcounter{lofdepth}{1}
\setcounter{subtable}{0}
\setcounter{subtable@save}{0}
\setcounter{lotdepth}{1}
\setcounter{r@tfl@t}{0}
\setcounter{LT@tables}{0}
\setcounter{LT@chunks}{0}
\setcounter{lstnumber}{1}
\setcounter{algorithm}{2}
\setcounter{ALC@unique}{17}
\setcounter{ALC@line}{9}
\setcounter{ALC@rem}{9}
\setcounter{ALC@depth}{0}
\setcounter{exercise}{0}
\setcounter{nonsense}{0}
\setcounter{lines}{0}
\setcounter{section@level}{0}
\setcounter{subalgorithm}{0}
\setcounter{subalgorithm@save}{0}
\setcounter{loadepth}{1}
\setcounter{FBLTpage}{0}
\setcounter{lstlisting}{0}
}
