\relax 
\providecommand\hyper@newdestlabel[2]{}
\FN@pp@footnotehinttrue 
\@writefile{toc}{\contentsline {chapter}{\numberline {第二章\hspace  {.3em}}基于视觉注意机制的显著图生成}{5}{chapter.2}\protected@file@percent }
\@writefile{toc}{\contentsline {section}{\numberline {2.1}引言}{5}{section.2.1}\protected@file@percent }
\@writefile{toc}{\contentsline {section}{\numberline {2.2}视觉注意处理机制}{5}{section.2.2}\protected@file@percent }
\@writefile{toc}{\contentsline {subsection}{\numberline {2.2.1}视觉信息处理过程}{5}{subsection.2.2.1}\protected@file@percent }
\@writefile{toc}{\contentsline {subsubsection}{\numberline {（1）}视觉感知}{5}{subsubsection.2.2.1.1}\protected@file@percent }
\@writefile{toc}{\contentsline {subsubsection}{\numberline {（2）}视觉处理}{6}{subsubsection.2.2.1.2}\protected@file@percent }
\@writefile{toc}{\contentsline {subsection}{\numberline {2.2.2}视觉注意计算模型}{6}{subsection.2.2.2}\protected@file@percent }
\@writefile{toc}{\contentsline {section}{\numberline {2.3}提取底层特征}{7}{section.2.3}\protected@file@percent }
\newlabel{equ:1}{{2.1}{7}{提取底层特征}{equation.2.3.1}{}}
\@writefile{lof}{\contentsline {figure}{\numberline {2.1}{\ignorespaces 显著图计算流程框图\relax }}{8}{figure.caption.5}\protected@file@percent }
\providecommand*\caption@xref[2]{\@setref\relax\@undefined{#1}}
\newlabel{fig:saliency_map_flow}{{2.1}{8}{显著图计算流程框图\relax }{figure.caption.5}{}}
\newlabel{equ:2}{{2.2}{8}{提取底层特征}{equation.2.3.2}{}}
\@writefile{toc}{\contentsline {subsection}{\numberline {2.3.1}亮度特征}{9}{subsection.2.3.1}\protected@file@percent }
\newlabel{equ:3}{{2.3}{9}{亮度特征}{equation.2.3.3}{}}
\newlabel{equ:4}{{2.4}{9}{亮度特征}{equation.2.3.4}{}}
\newlabel{equ:5}{{2.5}{9}{亮度特征}{equation.2.3.5}{}}
\@writefile{toc}{\contentsline {subsection}{\numberline {2.3.2}颜色特征}{9}{subsection.2.3.2}\protected@file@percent }
\newlabel{equ:6}{{2.6}{9}{颜色特征}{equation.2.3.6}{}}
\newlabel{equ:7}{{2.7}{10}{颜色特征}{equation.2.3.7}{}}
\@writefile{toc}{\contentsline {subsection}{\numberline {2.3.3}方向特征}{10}{subsection.2.3.3}\protected@file@percent }
\newlabel{equ:8}{{2.8}{10}{方向特征}{equation.2.3.8}{}}
\newlabel{equ:9}{{2.9}{10}{方向特征}{equation.2.3.9}{}}
\newlabel{equ:10}{{2.10}{10}{方向特征}{equation.2.3.10}{}}
\newlabel{equ:11}{{2.11}{10}{方向特征}{equation.2.3.11}{}}
\@writefile{toc}{\contentsline {subsection}{\numberline {2.3.4}区域对比度特征}{10}{subsection.2.3.4}\protected@file@percent }
\@writefile{lof}{\contentsline {figure}{\numberline {2.2}{\ignorespaces Lab颜色空间模型\relax }}{11}{figure.caption.6}\protected@file@percent }
\newlabel{fig:lab}{{2.2}{11}{Lab颜色空间模型\relax }{figure.caption.6}{}}
\newlabel{equ:12}{{2.12}{11}{区域对比度特征}{equation.2.3.12}{}}
\newlabel{equ:13}{{2.13}{11}{区域对比度特征}{equation.2.3.13}{}}
\@writefile{lof}{\contentsline {figure}{\numberline {2.3}{\ignorespaces 区域对比度计算流程框图\relax }}{12}{figure.caption.7}\protected@file@percent }
\newlabel{fig:rc}{{2.3}{12}{区域对比度计算流程框图\relax }{figure.caption.7}{}}
\newlabel{equ:14}{{2.14}{12}{区域对比度特征}{equation.2.3.14}{}}
\@writefile{toc}{\contentsline {section}{\numberline {2.4}显著图构建与融合}{12}{section.2.4}\protected@file@percent }
\@writefile{toc}{\contentsline {subsection}{\numberline {2.4.1}显著图构建}{12}{subsection.2.4.1}\protected@file@percent }
\newlabel{equ:15}{{2.15}{13}{显著图构建}{equation.2.4.15}{}}
\newlabel{equ:16}{{2.16}{13}{显著图构建}{equation.2.4.16}{}}
\newlabel{equ:17}{{2.17}{13}{显著图构建}{equation.2.4.17}{}}
\newlabel{equ:18}{{2.18}{13}{显著图构建}{equation.2.4.18}{}}
\@writefile{toc}{\contentsline {subsection}{\numberline {2.4.2}显著图融合}{13}{subsection.2.4.2}\protected@file@percent }
\newlabel{equ:19}{{2.19}{13}{显著图融合}{equation.2.4.19}{}}
\@writefile{toc}{\contentsline {section}{\numberline {2.5}模型仿真与实验分析}{13}{section.2.5}\protected@file@percent }
\@writefile{lof}{\contentsline {figure}{\numberline {2.4}{\ignorespaces 序列boat1显著图\relax }}{14}{figure.caption.8}\protected@file@percent }
\@writefile{lof}{\contentsline {figure}{\numberline {2.5}{\ignorespaces 序列car1显著图\relax }}{14}{figure.caption.9}\protected@file@percent }
\@writefile{lof}{\contentsline {figure}{\numberline {2.6}{\ignorespaces 序列uav1显著图\relax }}{15}{figure.caption.10}\protected@file@percent }
\@writefile{toc}{\contentsline {section}{\numberline {2.6}本章小结}{15}{section.2.6}\protected@file@percent }
\FN@pp@footnotehinttrue 
\@setckpt{content/salience}{
\setcounter{page}{16}
\setcounter{equation}{19}
\setcounter{enumi}{0}
\setcounter{enumii}{0}
\setcounter{enumiii}{0}
\setcounter{enumiv}{0}
\setcounter{footnote}{0}
\setcounter{mpfootnote}{0}
\setcounter{parentequation}{0}
\setcounter{part}{0}
\setcounter{chapter}{2}
\setcounter{section}{6}
\setcounter{subsection}{0}
\setcounter{subsubsection}{0}
\setcounter{paragraph}{0}
\setcounter{subparagraph}{0}
\setcounter{figure}{6}
\setcounter{table}{0}
\setcounter{pp@next@reset}{1}
\setcounter{@fnserial}{0}
\setcounter{NAT@ctr}{0}
\setcounter{caption@flags}{0}
\setcounter{continuedfloat}{0}
\setcounter{Item}{0}
\setcounter{Hfootnote}{0}
\setcounter{Hy@AnnotLevel}{0}
\setcounter{bookmark@seq@number}{23}
\setcounter{float@type}{16}
\setcounter{FBl@b}{0}
\setcounter{FRobj}{0}
\setcounter{FRsobj}{0}
\setcounter{FBcnt}{0}
\setcounter{dummytheorem}{0}
\setcounter{KVtest}{0}
\setcounter{subfigure}{0}
\setcounter{subfigure@save}{0}
\setcounter{lofdepth}{1}
\setcounter{subtable}{0}
\setcounter{subtable@save}{0}
\setcounter{lotdepth}{1}
\setcounter{r@tfl@t}{0}
\setcounter{LT@tables}{0}
\setcounter{LT@chunks}{0}
\setcounter{lstnumber}{1}
\setcounter{algorithm}{0}
\setcounter{ALC@unique}{0}
\setcounter{ALC@line}{0}
\setcounter{ALC@rem}{0}
\setcounter{ALC@depth}{0}
\setcounter{exercise}{0}
\setcounter{nonsense}{0}
\setcounter{lines}{0}
\setcounter{section@level}{0}
\setcounter{subalgorithm}{0}
\setcounter{subalgorithm@save}{0}
\setcounter{loadepth}{1}
\setcounter{FBLTpage}{0}
\setcounter{lstlisting}{0}
}
