\relax 
\providecommand\hyper@newdestlabel[2]{}
\FN@pp@footnotehinttrue 
\@writefile{toc}{\contentsline {chapter}{\numberline {第一章\hspace  {.3em}}绪论}{1}{chapter.1}\protected@file@percent }
\@writefile{toc}{\contentsline {section}{\numberline {1.1}研究背景和意义}{1}{section.1.1}\protected@file@percent }
\@writefile{lof}{\contentsline {figure}{\numberline {1.1}{\ignorespaces 一个完整的视觉运动分析过程\relax }}{1}{figure.caption.4}\protected@file@percent }
\@writefile{toc}{\contentsline {section}{\numberline {1.2}研究现状和进展}{2}{section.1.2}\protected@file@percent }
\@writefile{toc}{\contentsline {subsection}{\numberline {1.2.1}视觉注意机制的研究现状}{2}{subsection.1.2.1}\protected@file@percent }
\@writefile{toc}{\contentsline {subsubsection}{\numberline {（1）}自下而上视觉注意模型}{2}{subsubsection.1.2.1.1}\protected@file@percent }
\@writefile{toc}{\contentsline {subsubsection}{\numberline {（2）}自上而下视觉注意模型}{2}{subsubsection.1.2.1.2}\protected@file@percent }
\@writefile{toc}{\contentsline {subsection}{\numberline {1.2.2}目标检测的研究现状}{3}{subsection.1.2.2}\protected@file@percent }
\@writefile{toc}{\contentsline {subsubsection}{\numberline {（1）}遥感图像目标检测}{3}{subsubsection.1.2.2.1}\protected@file@percent }
\@writefile{toc}{\contentsline {subsubsection}{\numberline {（2）}静止图像目标检测}{3}{subsubsection.1.2.2.2}\protected@file@percent }
\@writefile{toc}{\contentsline {section}{\numberline {1.3}本文主要研究内容及组织结构}{3}{section.1.3}\protected@file@percent }
\@writefile{toc}{\contentsline {subsection}{\numberline {1.3.1}课题的研究内容}{3}{subsection.1.3.1}\protected@file@percent }
\@writefile{toc}{\contentsline {subsection}{\numberline {1.3.2}本文的组织结构}{3}{subsection.1.3.2}\protected@file@percent }
\FN@pp@footnotehinttrue 
\@setckpt{content/start}{
\setcounter{page}{5}
\setcounter{equation}{0}
\setcounter{enumi}{0}
\setcounter{enumii}{0}
\setcounter{enumiii}{0}
\setcounter{enumiv}{0}
\setcounter{footnote}{0}
\setcounter{mpfootnote}{0}
\setcounter{parentequation}{0}
\setcounter{part}{0}
\setcounter{chapter}{1}
\setcounter{section}{3}
\setcounter{subsection}{2}
\setcounter{subsubsection}{0}
\setcounter{paragraph}{0}
\setcounter{subparagraph}{0}
\setcounter{figure}{1}
\setcounter{table}{0}
\setcounter{pp@next@reset}{1}
\setcounter{@fnserial}{0}
\setcounter{NAT@ctr}{0}
\setcounter{caption@flags}{0}
\setcounter{continuedfloat}{0}
\setcounter{Item}{0}
\setcounter{Hfootnote}{0}
\setcounter{Hy@AnnotLevel}{0}
\setcounter{bookmark@seq@number}{8}
\setcounter{float@type}{16}
\setcounter{FBl@b}{0}
\setcounter{FRobj}{0}
\setcounter{FRsobj}{0}
\setcounter{FBcnt}{0}
\setcounter{dummytheorem}{0}
\setcounter{KVtest}{0}
\setcounter{subfigure}{0}
\setcounter{subfigure@save}{0}
\setcounter{lofdepth}{1}
\setcounter{subtable}{0}
\setcounter{subtable@save}{0}
\setcounter{lotdepth}{1}
\setcounter{r@tfl@t}{0}
\setcounter{LT@tables}{0}
\setcounter{LT@chunks}{0}
\setcounter{lstnumber}{1}
\setcounter{algorithm}{0}
\setcounter{ALC@unique}{0}
\setcounter{ALC@line}{0}
\setcounter{ALC@rem}{0}
\setcounter{ALC@depth}{0}
\setcounter{exercise}{0}
\setcounter{nonsense}{0}
\setcounter{lines}{0}
\setcounter{section@level}{0}
\setcounter{subalgorithm}{0}
\setcounter{subalgorithm@save}{0}
\setcounter{loadepth}{1}
\setcounter{FBLTpage}{0}
\setcounter{lstlisting}{0}
}
