\relax 
\providecommand\hyper@newdestlabel[2]{}
\FN@pp@footnotehinttrue 
\@writefile{toc}{\contentsline {chapter}{\numberline {第三章\hspace  {.3em}}定理环境·下}{5}{chapter.3}\protected@file@percent }
\@writefile{toc}{\contentsline {section}{\numberline {3.1}演示一级标题}{5}{section.3.1}\protected@file@percent }
\@writefile{toc}{\contentsline {subsection}{\numberline {3.1.1}演示二级标题}{5}{subsection.3.1.1}\protected@file@percent }
\@writefile{toc}{\contentsline {subsubsection}{\numberline {（1）}演示三级标题}{5}{subsubsection.3.1.1.1}\protected@file@percent }
\newlabel{non:dora}{{3.1}{5}{}{nonsense.3.1}{}}
\FN@pp@footnote@aux{1}{5}
\newlabel{ex:oneplus}{{3.1}{5}{}{exercise.3.1}{}}
\FN@pp@footnote@aux{2}{5}
\newlabel{s2}{{2}{5}{}{lines.2}{}}
\FN@pp@footnotehinttrue 
\@setckpt{content/theorem2}{
\setcounter{page}{6}
\setcounter{equation}{0}
\setcounter{enumi}{3}
\setcounter{enumii}{0}
\setcounter{enumiii}{0}
\setcounter{enumiv}{0}
\setcounter{footnote}{0}
\setcounter{mpfootnote}{0}
\setcounter{parentequation}{0}
\setcounter{part}{0}
\setcounter{chapter}{3}
\setcounter{section}{1}
\setcounter{subsection}{1}
\setcounter{subsubsection}{1}
\setcounter{paragraph}{0}
\setcounter{subparagraph}{0}
\setcounter{figure}{0}
\setcounter{table}{0}
\setcounter{pp@next@reset}{3}
\setcounter{@fnserial}{2}
\setcounter{NAT@ctr}{0}
\setcounter{caption@flags}{0}
\setcounter{continuedfloat}{0}
\setcounter{Item}{20}
\setcounter{Hfootnote}{2}
\setcounter{Hy@AnnotLevel}{0}
\setcounter{bookmark@seq@number}{15}
\setcounter{float@type}{8}
\setcounter{FBl@b}{0}
\setcounter{FRobj}{0}
\setcounter{FRsobj}{0}
\setcounter{FBcnt}{0}
\setcounter{dummytheorem}{0}
\setcounter{KVtest}{0}
\setcounter{subfigure}{0}
\setcounter{subfigure@save}{0}
\setcounter{lofdepth}{1}
\setcounter{subtable}{0}
\setcounter{subtable@save}{0}
\setcounter{lotdepth}{1}
\setcounter{r@tfl@t}{0}
\setcounter{LT@tables}{0}
\setcounter{LT@chunks}{0}
\setcounter{lstnumber}{1}
\setcounter{exercise}{2}
\setcounter{nonsense}{2}
\setcounter{lines}{2}
\setcounter{section@level}{0}
\setcounter{FBLTpage}{0}
\setcounter{lstlisting}{0}
}
